^C:\USERS\CERVEZA\DESKTOP\PROGRAMKO\SOUSTAVA_ROVNIC\SOUSTAVA_ROVNIC\DEBUG\MATIC.OBJ|C:\USERS\CERVEZA\DESKTOP\PROGRAMKO\SOUSTAVA_ROVNIC\SOUSTAVA_ROVNIC\DEBUG\SOUSTAVA_ROVNIC.OBJ|C:\USERS\CERVEZA\DESKTOP\PROGRAMKO\SOUSTAVA_ROVNIC\SOUSTAVA_ROVNIC\DEBUG\STDAFX.OBJ
/OUT:"C:\USERS\CERVEZA\DESKTOP\PROGRAMKO\SOUSTAVA_ROVNIC\DEBUG\SOUSTAVA_ROVNIC.EXE" /INCREMENTAL /NOLOGO kernel32.lib user32.lib gdi32.lib winspool.lib comdlg32.lib advapi32.lib shell32.lib ole32.lib oleaut32.lib uuid.lib odbc32.lib odbccp32.lib /MANIFEST /MANIFESTUAC:"level='asInvoker' uiAccess='false'" /manifest:embed /DEBUG /PDB:"C:\USERS\CERVEZA\DESKTOP\PROGRAMKO\SOUSTAVA_ROVNIC\DEBUG\SOUSTAVA_ROVNIC.PDB" /SUBSYSTEM:CONSOLE /TLBID:1 /DYNAMICBASE /NXCOMPAT /IMPLIB:"C:\USERS\CERVEZA\DESKTOP\PROGRAMKO\SOUSTAVA_ROVNIC\DEBUG\SOUSTAVA_ROVNIC.LIB" /MACHINE:X86 DEBUG\MATIC.OBJDEBUG\SOUSTAVA_ROVNIC.OBJDEBUG\STDAFX.OBJ
^C:\USERS\CERVEZA\DESKTOP\PROGRAMKO\XSMEJK22_173758\SOUSTAVA_ROVNIC\SOUSTAVA_ROVNIC\DEBUG\MATIC.OBJ|C:\USERS\CERVEZA\DESKTOP\PROGRAMKO\XSMEJK22_173758\SOUSTAVA_ROVNIC\SOUSTAVA_ROVNIC\DEBUG\SOUSTAVA_ROVNIC.OBJ|C:\USERS\CERVEZA\DESKTOP\PROGRAMKO\XSMEJK22_173758\SOUSTAVA_ROVNIC\SOUSTAVA_ROVNIC\DEBUG\STDAFX.OBJ
/OUT:"C:\USERS\CERVEZA\DESKTOP\PROGRAMKO\XSMEJK22_173758\SOUSTAVA_ROVNIC\DEBUG\SOUSTAVA_ROVNIC.EXE" /INCREMENTAL /NOLOGO kernel32.lib user32.lib gdi32.lib winspool.lib comdlg32.lib advapi32.lib shell32.lib ole32.lib oleaut32.lib uuid.lib odbc32.lib odbccp32.lib /MANIFEST /MANIFESTUAC:"level='asInvoker' uiAccess='false'" /manifest:embed /DEBUG /PDB:"C:\USERS\CERVEZA\DESKTOP\PROGRAMKO\XSMEJK22_173758\SOUSTAVA_ROVNIC\DEBUG\SOUSTAVA_ROVNIC.PDB" /SUBSYSTEM:CONSOLE /TLBID:1 /DYNAMICBASE /NXCOMPAT /IMPLIB:"C:\USERS\CERVEZA\DESKTOP\PROGRAMKO\XSMEJK22_173758\SOUSTAVA_ROVNIC\DEBUG\SOUSTAVA_ROVNIC.LIB" /MACHINE:X86 DEBUG\MATIC.OBJDEBUG\SOUSTAVA_ROVNIC.OBJDEBUG\STDAFX.OBJ
