^C:\USERS\CERVEZA\DESKTOP\PROGRAMKO\SOUSTAVA_ROVNIC\SOUSTAVA_ROVNIC\DEBUG\MATIC.OBJ|C:\USERS\CERVEZA\DESKTOP\PROGRAMKO\SOUSTAVA_ROVNIC\SOUSTAVA_ROVNIC\DEBUG\SOUSTAVA_ROVNIC.OBJ|C:\USERS\CERVEZA\DESKTOP\PROGRAMKO\SOUSTAVA_ROVNIC\SOUSTAVA_ROVNIC\DEBUG\STDAFX.OBJ
C:\USERS\CERVEZA\DESKTOP\PROGRAMKO\SOUSTAVA_ROVNIC\DEBUG\SOUSTAVA_ROVNIC.ILK
C:\USERS\CERVEZA\DESKTOP\PROGRAMKO\SOUSTAVA_ROVNIC\DEBUG\SOUSTAVA_ROVNIC.EXE
C:\USERS\CERVEZA\DESKTOP\PROGRAMKO\SOUSTAVA_ROVNIC\DEBUG\SOUSTAVA_ROVNIC.PDB
^C:\USERS\CERVEZA\DESKTOP\PROGRAMKO\XSMEJK22_173758\SOUSTAVA_ROVNIC\SOUSTAVA_ROVNIC\DEBUG\MATIC.OBJ|C:\USERS\CERVEZA\DESKTOP\PROGRAMKO\XSMEJK22_173758\SOUSTAVA_ROVNIC\SOUSTAVA_ROVNIC\DEBUG\SOUSTAVA_ROVNIC.OBJ|C:\USERS\CERVEZA\DESKTOP\PROGRAMKO\XSMEJK22_173758\SOUSTAVA_ROVNIC\SOUSTAVA_ROVNIC\DEBUG\STDAFX.OBJ
C:\USERS\CERVEZA\DESKTOP\PROGRAMKO\XSMEJK22_173758\SOUSTAVA_ROVNIC\DEBUG\SOUSTAVA_ROVNIC.ILK
C:\USERS\CERVEZA\DESKTOP\PROGRAMKO\XSMEJK22_173758\SOUSTAVA_ROVNIC\DEBUG\SOUSTAVA_ROVNIC.EXE
C:\USERS\CERVEZA\DESKTOP\PROGRAMKO\XSMEJK22_173758\SOUSTAVA_ROVNIC\DEBUG\SOUSTAVA_ROVNIC.PDB
